{
  "version": "0.3.14-fixed",
  "steps": [
    {
      "tag": "CreateField",
      "model": "User",
      "field": "quote",
      "type": "String",
      "arity": "Optional"
    },
    {
      "tag": "DeleteField",
      "model": "User",
      "field": "comment"
    }
  ]
}